…
```r
# Let's look at the killings data to understand what data we have, and what sort of dependent variable we want to create. 

killdata_clean %>%
  group_by(manner_of_death, signs_of_mental_illness, threat_level, flee, body_camera) %>%
  summarise(count = n())
```

```
## `summarise()` has grouped output by 'manner_of_death', 'signs_of_mental_illness', 'threat_level', 'flee'. You can override using the `.groups` argument.
```

```
## # A tibble: 88 x 6
## # Groups:   manner_of_death, signs_of_mental_illness, threat_level, flee [49]
##    manner_of_death signs_of_mental_ill~ threat_level flee      body_camera count
##    <chr>           <lgl>                <chr>        <chr>     <lgl>       <int>
##  1 shot            FALSE                attack       ""        FALSE         135
##  2 shot            FALSE                attack       ""        TRUE           18
##  3 shot            FALSE                attack       "Car"     FALSE         500
##  4 shot            FALSE                attack       "Car"     TRUE           44
##  5 shot            FALSE                attack       "Foot"    FALSE         366
##  6 shot            FALSE                attack       "Foot"    TRUE           62
##  7 shot            FALSE                attack       "Not fle~ FALSE        1469
##  8 shot            FALSE                attack       "Not fle~ TRUE          171
##  9 shot            FALSE                attack       "Other"   FALSE         100
## 10 shot            FALSE                attack       "Other"   TRUE           16
## # ... with 78 more rows
```
…
